{
  "development": {
    "username": "root",
    "password": "password",
    "database": "givet",
    "host": "localhost",
    "dialect": "mysql",
    "operatorsAliases": false,
    "dialectOptions": {
      "multipleStatements": true
    },
    "migrationStorageTableName": "_migrations",
    "seederStorage": "sequelize",
    "seederStorageTableName": "_seeders"
  },
  "production": {
    "username": "givet",
    "password": "givet-2019",
    "database": "givet",
    "host": "localhost",
    "dialect": "mysql",
    "operatorsAliases": false,
    "dialectOptions": {
      "multipleStatements": true
    },
    "migrationStorageTableName": "_migrations",
    "seederStorage": "sequelize",
    "seederStorageTableName": "_seeders"
  }
}
