{
  "host": "http://localhost:3030",
  "port": 3030,
  "public": "../public",
  "app": "../public/app",
  "mocha": "../public/mocha",
  "files": "../public/uploads",
  "paginate": {
    "default": 100,
    "max": 100
  },
  "authentication": {
    "path": "/api/authentication",
    "entity": "user",
    "service": "/api/users",
    "secret": "Y2vmB8sLeyRaKBdoK+munRuK4QM=",
    "authStrategies": [
      "jwt",
      "local",
      "local-email",
      "local-username",
      "local-phone"
    ],
    "jwtOptions": {
      "header": {
        "typ": "access"
      },
      "audience": "https://givet.com",
      "issuer": "givet",
      "algorithm": "HS256",
      "expiresIn": "10d"
    },
    "local": {
      "usernameField": "email",
      "passwordField": "password",
      "entityUsernameField": "email"
    },
    "local-email": {
      "usernameField": "email",
      "passwordField": "password",
      "entityUsernameField": "email"
    },
    "local-username": {
      "usernameField": "userName",
      "passwordField": "password",
      "entityUsernameField": "userName"
    },
    "local-phone": {
      "usernameField": "phone",
      "passwordField": "password",
      "entityUsernameField": "phone"
    },
    "oauth": {
      "redirect": "/",
      "auth0": {
        "key": "<auth0 oauth key>",
        "secret": "<auth0 oauth secret>",
        "subdomain": "<auth0 subdomain>"
      },
      "google": {
        "key": "<google oauth key>",
        "secret": "<google oauth secret>",
        "scope": ["email", "profile", "openid"]
      }
    }
  },
  "mysql": "mysql://root:password@localhost/givet",
  "Xmysql": "mysql://root:password@localhost/givet",

  "notifier": {
    "host": "http://localhost:3030",
    "XsmtpTransport": {
      "service": "gmail",
      "auth": {
        "user": "gpyme.test@gmail.com",
        "pass": "@gpyme.1234"
      }
    },
    "YsmtpTransport": {
      "host": "smtp.gmail.com",
      "port": 465,
      "secure": true,
      "auth": {
        "user": "gpyme.test@gmail.com",
        "pass": "@gpyme.1234"
      }
    },
    "smtpTransport": {
      "host": "email-smtp.us-west-2.amazonaws.com",
      "port": 587,
      "secure": false,
      "auth": {
        "user": "AKIAINOYVTCBLDSTUWXQ",
        "pass": "BG3Th3d5YG8xEYu1aQPJ5va7qO9/W0XTQX9LZGcW5z7k"
      }
    },
    "defaults": {
      "from": "support@winsshar.com"
    }
  }
}
